SubscriberKey,EmailAddress,EventDate,EventType,TriggeredSendExternalKey,EmailCategory,Cardholderid
AU_TM_14164113,John.Smith1@test.com,15/06/19 18:17,Open,159887,Mastercard Daily Journey,23482920
AU_TM_14164114,John.Smith2@test.com,15/06/19 18:17,Open,159887,Mastercard Daily Journey,23482921
AU_TM_14164115,John.Smith3@test.com,15/06/19 18:17,Open,159887,Content send,23482922
AU_TM_14164116,John.Smith4@test.com,15/06/19 18:17,Open,159887,Upsell Journey,23482923
AU_TM_14164117,John.Smith5@test.com,15/06/19 18:17,Open,159887,Welcome Journey,23482923
AU_TM_14164118,John.Smith6@test.com,15/06/19 18:17,Open,159887,Content send,23482921
AU_TM_14164119,John.Smith6@test.com,15/06/19 18:17,Open,159887,GA360Journey,23482921
AU_TM_14164120,John.Smith6@test.com,15/06/19 18:17,Open,159887,GA360Journey,23482925
AU_TM_14164121,John.Smith7@test.com,15/06/19 18:17,Open,159887,Upsell Journey,23482926
AU_TM_14164122,John.Smith8@test.com,15/06/19 18:17,Open,159887,Upsell Journey,23482927
AU_TM_14164123,John.Smith9@test.com,15/06/19 18:17,Open,159887,Mastercard Daily Journey,23482929
AU_TM_14164124,John.Smith9@test.com,15/06/19 18:17,Open,159887,Mastercard Daily Journey,23482929
