"DealCode","FirstName","MiddleName","LastName","Address","DOB","Occupation","PhoneNumber","Email","Marketing","TradingPeriod","DealCreateDate","ProductName","DealValue","TradeDirection","CallDate","CallTime","BusinessName","BusinessCatagory","SearchEngine","Type","Keywords","Referral","LandingPage","CurrentPageReference","AdCopy","AdwordsCampaign","Dtmf","DtmfDescription"
"102100-059499","John","C","Smith",,,,"123457","john@smith.com","No",,"2019-05-30T00:15:10.010Z","Foreign Cash","999.86","SELL",,,,,,,,,,,,,,
"102100-059500","John","D","Smith",,,,"123462","john@smith.com","No",,"2019-05-30T00:16:10.010Z","Foreign Cash","731.2","BUY",,,,,,,,,,,,,,
"102100-059501","John","E","Smith",,,,"123460","john@smith.com","No",,"2019-05-30T10:21:10.010Z","Foreign Cash","32.43","BUY",,,,,,,,,,,,,,
"102100-059496","John","A","Smith",,,,"123456","john@smith.com","No",,"2019-05-30T00:13:10.010Z","Foreign Cash","112.59","SELL",,,,,,,,,,,,,,
"102100-059497","John","B","Smith",,,,"123457","john@smith.com","No",,"2019-05-30T00:14:10.010Z","Foreign Cash","707.71","SELL",,,,,,,,,,,,,,
"102100-059503","John","G","Smith",,,,"123462","john@smith.com","No",,"2019-06-30T00:19:10.010Z","Foreign Cash","307.06","SELL",,,,,,,,,,,,,,
"102100-059509","","","",,,,"123467","","",,"2019-06-30T10:24:10.010Z","Foreign Cash","142.41","SELL",,,,,,,,,,,,,,
"102100-059519","","","",,,,"123472","","",,"2019-06-30T10:29:10.010Z","Foreign Cash","562.95","SELL",,,,,,,,,,,,,,
"102100-059527","","","",,,,"123477","","",,"2019-06-30T10:34:10.010Z","Foreign Cash","1,436.58","SELL",,,,,,,,,,,,,,
"102100-059537","","","",,,,"123482","","",,"2019-06-30T10:39:10.010Z","Foreign Cash","1,302.43","SELL",,,,,,,,,,,,,,
"102100-059505","John","H","Smith",,,,"123463","john@smith.com","No",,"2019-06-30T07:49:10.010Z","Foreign Cash","128.73","BUY",,,,,,,,,,,,,,
"102100-059510","","","",,,,"123468","","",,"2019-06-30T10:25:10.010Z","Foreign Cash","357.02","SELL",,,,,,,,,,,,,,
"102100-059520","","","",,,,"123473","","",,"2019-06-30T10:30:10.010Z","Foreign Cash","998.82","SELL",,,,,,,,,,,,,,
"102100-059506","John","I","Smith",,,,"123464","john@smith.com","No",,"2019-06-30T10:21:10.010Z","Foreign Cash","199.83","SELL",,,,,,,,,,,,,,
"102100-059528","","","",,,,"123478","","",,"2019-06-30T10:35:10.010Z","Currency Card, Foreign Cash","4,595.52","SELL",,,,,,,,,,,,,,
"102100-059512","","","",,,,"123469","","",,"2019-06-30T10:26:10.010Z","Foreign Cash","2,860.41","SELL",,,,,,,,,,,,,,
"102100-059507","","","",,,,"123465","","",,"2019-06-30T10:22:10.010Z","Foreign Cash","299.06","SELL",,,,,,,,,,,,,,
"102100-059502","John","F","Smith",,,,"123461","john@smith.com","No",,"2019-06-30T00:18:10.010Z","Foreign Cash","1,149.26","SELL",,,,,,,,,,,,,,
"102100-059539","","","",,,,"123483","","",,"2019-06-30T10:40:10.010Z","Foreign Cash","193.8","SELL",,,,,,,,,,,,,,
"102100-059523","","","",,,,"123474","","",,"2019-06-30T10:31:10.010Z","Foreign Cash","1,000.61","SELL",,,,,,,,,,,,,,
"102100-059508","","","",,,,"123458","","",,"2019-06-30T10:23:10.010Z","Foreign Cash","142.41","SELL",,,,,,,,,,,,,,
"102100-059514","","","",,,,"123470","","",,"2019-06-30T10:27:10.010Z","Foreign Cash","214.51","SELL",,,,,,,,,,,,,,
"102100-059530","","","",,,,"123479","","",,"2019-06-30T10:36:10.010Z","Foreign Cash","548.77","SELL",,,,,,,,,,,,,,
"102100-059516","","","",,,,"123471","","",,"2019-06-30T10:28:10.010Z","Currency Card","200","SELL",,,,,,,,,,,,,,
"102100-059540","","","",,,,"123484","","",,"2019-06-30T10:41:10.010Z","Foreign Cash","801.89","SELL",,,,,,,,,,,,,,
"102100-059524","","","",,,,"123475","","",,"2019-06-30T10:32:10.010Z","Foreign Cash","699.89","SELL",,,,,,,,,,,,,,
"102100-059526","","","",,,,"123476","","",,"2019-06-30T10:33:10.010Z","Foreign Cash","407.66","SELL",,,,,,,,,,,,,,
"102100-059532","","","",,,,"123480","","",,"2019-06-30T10:37:10.010Z","MoneyGram Send","200","SELL",,,,,,,,,,,,,,
"102100-059536","","","",,,,"123481","","",,"2019-06-30T10:38:10.010Z","Foreign Cash","236.87","BUY",,,,,,,,,,,,,,
"102100-059541","","","",,,,"123485","","",,"2019-06-30T10:42:10.010Z","MoneyGram Send","316","SELL",,,,,,,,,,,,,,
"102100-059496","John","A","Smith",,,,"123456","john@smith.com","No",,"2019-05-30T00:13:10.010Z",,,,,,,,,,,,,,,,,
"102100-059497","John","B","Smith",,,,"123457","john@smith.com","No",,"2019-05-30T00:14:10.010Z",,,,,,,,,,,,,,,,,
"102100-059499","John","C","Smith",,,,"123457","john@smith.com","No",,"2019-05-30T00:15:10.010Z",,,,,,,,,,,,,,,,,
"102100-059500","John","D","Smith",,,,"123462","john@smith.com","No",,"2019-05-30T00:16:10.010Z",,,,,,,,,,,,,,,,,
"102100-059501","John","E","Smith",,,,"123460","john@smith.com","No",,"2019-05-30T10:21:10.010Z",,,,,,,,,,,,,,,,,
"102100-059502","John","F","Smith",,,,"123461","john@smith.com","No",,"2019-06-30T00:18:10.010Z",,,,,,,,,,,,,,,,,
"102100-059503","John","G","Smith",,,,"123462","john@smith.com","No",,"2019-06-30T00:19:10.010Z",,,,,,,,,,,,,,,,,
"102100-059505","John","H","Smith",,,,"123463","john@smith.com","No",,"2019-06-30T07:49:10.010Z",,,,,,,,,,,,,,,,,
"102100-059506","John","I","Smith",,,,"123464","john@smith.com","No",,"2019-06-30T10:21:10.010Z",,,,,,,,,,,,,,,,,
"102100-059507","","","",,,,"123465","","",,"2019-06-30T10:22:10.010Z",,,,,,,,,,,,,,,,,
"102100-059508","","","",,,,"123458","","",,"2019-06-30T10:23:10.010Z",,,,,,,,,,,,,,,,,
"102100-059509","","","",,,,"123467","","",,"2019-06-30T10:24:10.010Z",,,,,,,,,,,,,,,,,
"102100-059510","","","",,,,"123468","","",,"2019-06-30T10:25:10.010Z",,,,,,,,,,,,,,,,,
"102100-059512","","","",,,,"123469","","",,"2019-06-30T10:26:10.010Z",,,,,,,,,,,,,,,,,
"102100-059514","","","",,,,"123470","","",,"2019-06-30T10:27:10.010Z",,,,,,,,,,,,,,,,,
"102100-059516","","","",,,,"123471","","",,"2019-06-30T10:28:10.010Z",,,,,,,,,,,,,,,,,
"102100-059519","","","",,,,"123472","","",,"2019-06-30T10:29:10.010Z",,,,,,,,,,,,,,,,,
"102100-059520","","","",,,,"123473","","",,"2019-06-30T10:30:10.010Z",,,,,,,,,,,,,,,,,
"102100-059523","","","",,,,"123474","","",,"2019-06-30T10:31:10.010Z",,,,,,,,,,,,,,,,,
"102100-059524","","","",,,,"123475","","",,"2019-06-30T10:32:10.010Z",,,,,,,,,,,,,,,,,
"102100-059526","","","",,,,"123476","","",,"2019-06-30T10:33:10.010Z",,,,,,,,,,,,,,,,,
"102100-059527","","","",,,,"123477","","",,"2019-06-30T10:34:10.010Z",,,,,,,,,,,,,,,,,
"102100-059528","","","",,,,"123478","","",,"2019-06-30T10:35:10.010Z",,,,,,,,,,,,,,,,,
"102100-059530","","","",,,,"123479","","",,"2019-06-30T10:36:10.010Z",,,,,,,,,,,,,,,,,
"102100-059532","","","",,,,"123480","","",,"2019-06-30T10:37:10.010Z",,,,,,,,,,,,,,,,,
"102100-059536","","","",,,,"123481","","",,"2019-06-30T10:38:10.010Z",,,,,,,,,,,,,,,,,
"102100-059537","","","",,,,"123482","","",,"2019-06-30T10:39:10.010Z",,,,,,,,,,,,,,,,,
"102100-059539","","","",,,,"123483","","",,"2019-06-30T10:40:10.010Z",,,,,,,,,,,,,,,,,
"102100-059540","","","",,,,"123484","","",,"2019-06-30T10:41:10.010Z",,,,,,,,,,,,,,,,,
"102100-059541","","","",,,,"123485","","",,"2019-06-30T10:42:10.010Z",,,,,,,,,,,,,,,,,
"102100-059496","John","A","Smith",,,,"123456","john@smith.com","No",,"2019-05-30T00:13:10.010Z",,,,,,,,,,,,,,,,,
"102100-059497","John","B","Smith",,,,"123457","john@smith.com","No",,"2019-05-30T00:14:10.010Z",,,,,,,,,,,,,,,,,
"102100-059499","John","C","Smith",,,,"123457","john@smith.com","No",,"2019-05-30T00:15:10.010Z",,,,,,,,,,,,,,,,,
"102100-059500","John","D","Smith",,,,"123462","john@smith.com","No",,"2019-05-30T00:16:10.010Z",,,,,,,,,,,,,,,,,
"102100-059501","John","E","Smith",,,,"123460","john@smith.com","No",,"2019-05-30T10:21:10.010Z",,,,,,,,,,,,,,,,,
"102100-059502","John","F","Smith",,,,"123461","john@smith.com","No",,"2019-06-30T00:18:10.010Z",,,,,,,,,,,,,,,,,
"102100-059503","John","G","Smith",,,,"123462","john@smith.com","No",,"2019-06-30T00:19:10.010Z",,,,,,,,,,,,,,,,,
"102100-059505","John","H","Smith",,,,"123463","john@smith.com","No",,"2019-06-30T07:49:10.010Z",,,,,,,,,,,,,,,,,
"102100-059506","John","I","Smith",,,,"123464","john@smith.com","No",,"2019-06-30T10:21:10.010Z",,,,,,,,,,,,,,,,,
"102100-059507","","","",,,,"123465","","",,"2019-06-30T10:22:10.010Z",,,,,,,,,,,,,,,,,
"102100-059508","","","",,,,"123458","","",,"2019-06-30T10:23:10.010Z",,,,,,,,,,,,,,,,,
"102100-059509","","","",,,,"123467","","",,"2019-06-30T10:24:10.010Z",,,,,,,,,,,,,,,,,
"102100-059510","","","",,,,"123468","","",,"2019-06-30T10:25:10.010Z",,,,,,,,,,,,,,,,,
"102100-059512","","","",,,,"123469","","",,"2019-06-30T10:26:10.010Z",,,,,,,,,,,,,,,,,
"102100-059514","","","",,,,"123470","","",,"2019-06-30T10:27:10.010Z",,,,,,,,,,,,,,,,,
"102100-059516","","","",,,,"123471","","",,"2019-06-30T10:28:10.010Z",,,,,,,,,,,,,,,,,
"102100-059519","","","",,,,"123472","","",,"2019-06-30T10:29:10.010Z",,,,,,,,,,,,,,,,,
"102100-059520","","","",,,,"123473","","",,"2019-06-30T10:30:10.010Z",,,,,,,,,,,,,,,,,
"102100-059523","","","",,,,"123474","","",,"2019-06-30T10:31:10.010Z",,,,,,,,,,,,,,,,,
"102100-059524","","","",,,,"123475","","",,"2019-06-30T10:32:10.010Z",,,,,,,,,,,,,,,,,
"102100-059526","","","",,,,"123476","","",,"2019-06-30T10:33:10.010Z",,,,,,,,,,,,,,,,,
"102100-059527","","","",,,,"123477","","",,"2019-06-30T10:34:10.010Z",,,,,,,,,,,,,,,,,
"102100-059528","","","",,,,"123478","","",,"2019-06-30T10:35:10.010Z",,,,,,,,,,,,,,,,,
"102100-059530","","","",,,,"123479","","",,"2019-06-30T10:36:10.010Z",,,,,,,,,,,,,,,,,
"102100-059532","","","",,,,"123480","","",,"2019-06-30T10:37:10.010Z",,,,,,,,,,,,,,,,,
"102100-059536","","","",,,,"123481","","",,"2019-06-30T10:38:10.010Z",,,,,,,,,,,,,,,,,
"102100-059537","","","",,,,"123482","","",,"2019-06-30T10:39:10.010Z",,,,,,,,,,,,,,,,,
"102100-059539","","","",,,,"123483","","",,"2019-06-30T10:40:10.010Z",,,,,,,,,,,,,,,,,
"102100-059540","","","",,,,"123484","","",,"2019-06-30T10:41:10.010Z",,,,,,,,,,,,,,,,,
"102100-059541","","","",,,,"123485","","",,"2019-06-30T10:42:10.010Z",,,,,,,,,,,,,,,,,
"102100-059496","John","A","Smith",,,,"123456","john@smith.com","No",,"2019-05-30T00:13:10.010Z",,,,,,,,,,,,,,,,,
"102100-059497","John","B","Smith",,,,"123457","john@smith.com","No",,"2019-05-30T00:14:10.010Z",,,,,,,,,,,,,,,,,
"102100-059499","John","C","Smith",,,,"123457","john@smith.com","No",,"2019-05-30T00:15:10.010Z",,,,,,,,,,,,,,,,,
"102100-059500","John","D","Smith",,,,"123462","john@smith.com","No",,"2019-05-30T00:16:10.010Z",,,,,,,,,,,,,,,,,
"102100-059501","John","E","Smith",,,,"123460","john@smith.com","No",,"2019-05-30T10:21:10.010Z",,,,,,,,,,,,,,,,,
"102100-059502","John","F","Smith",,,,"123461","john@smith.com","No",,"2019-06-30T00:18:10.010Z",,,,,,,,,,,,,,,,,
"102100-059503","John","G","Smith",,,,"123462","john@smith.com","No",,"2019-06-30T00:19:10.010Z",,,,,,,,,,,,,,,,,
"102100-059505","John","H","Smith",,,,"123463","john@smith.com","No",,"2019-06-30T07:49:10.010Z",,,,,,,,,,,,,,,,,
"102100-059506","John","I","Smith",,,,"123464","john@smith.com","No",,"2019-06-30T10:21:10.010Z",,,,,,,,,,,,,,,,,
"102100-059507","","","",,,,"123465","","",,"2019-06-30T10:22:10.010Z",,,,,,,,,,,,,,,,,
"102100-059508","","","",,,,"123458","","",,"2019-06-30T10:23:10.010Z",,,,,,,,,,,,,,,,,
"102100-059509","","","",,,,"123467","","",,"2019-06-30T10:24:10.010Z",,,,,,,,,,,,,,,,,
"102100-059510","","","",,,,"123468","","",,"2019-06-30T10:25:10.010Z",,,,,,,,,,,,,,,,,
"102100-059512","","","",,,,"123469","","",,"2019-06-30T10:26:10.010Z",,,,,,,,,,,,,,,,,
"102100-059514","","","",,,,"123470","","",,"2019-06-30T10:27:10.010Z",,,,,,,,,,,,,,,,,
"102100-059516","","","",,,,"123471","","",,"2019-06-30T10:28:10.010Z",,,,,,,,,,,,,,,,,
"102100-059519","","","",,,,"123472","","",,"2019-06-30T10:29:10.010Z",,,,,,,,,,,,,,,,,
"102100-059520","","","",,,,"123473","","",,"2019-06-30T10:30:10.010Z",,,,,,,,,,,,,,,,,
"102100-059524","","","",,,,"123475","","",,"2019-06-30T10:32:10.010Z",,,,,,,,,,,,,,,,,
"102100-059523","","","",,,,"123474","","",,"2019-06-30T10:31:10.010Z",,,,,,,,,,,,,,,,,
"102100-059526","","","",,,,"123476","","",,"2019-06-30T10:33:10.010Z",,,,,,,,,,,,,,,,,
"102100-059527","","","",,,,"123477","","",,"2019-06-30T10:34:10.010Z",,,,,,,,,,,,,,,,,
"102100-059528","","","",,,,"123478","","",,"2019-06-30T10:35:10.010Z",,,,,,,,,,,,,,,,,
"102100-059530","","","",,,,"123479","","",,"2019-06-30T10:36:10.010Z",,,,,,,,,,,,,,,,,
"102100-059532","","","",,,,"123480","","",,"2019-06-30T10:37:10.010Z",,,,,,,,,,,,,,,,,
"102100-059536","","","",,,,"123481","","",,"2019-06-30T10:38:10.010Z",,,,,,,,,,,,,,,,,
"102100-059537","","","",,,,"123482","","",,"2019-06-30T10:39:10.010Z",,,,,,,,,,,,,,,,,
"102100-059539","","","",,,,"123483","","",,"2019-06-30T10:40:10.010Z",,,,,,,,,,,,,,,,,
"102100-059540","","","",,,,"123484","","",,"2019-06-30T10:41:10.010Z",,,,,,,,,,,,,,,,,
"102100-059541","","","",,,,"123485","","",,"2019-06-30T10:42:10.010Z",,,,,,,,,,,,,,,,,