DealCreateDate ,DealCode,LargeTradeViolation,SanctionCheck,NameCheck,IsSuspicious,ProductName ,SettlementProductId,DealValue ,TradeDirection,MarketingOption ,FirstName,LastName ,Address,DOB ,Occupation,PrimaryIdString1 ,PrimaryIdString2,CountryOfIssue ,ExpiryDate
5-30-19 10:13,1938,No,Yes,Yes,No,Cash,1,100,Buy,No,John,Smith,"1 street street, suburb",3,Job,1,1,Aus,5-30-19
5-30-19 10:14,1939,No,Yes,Yes,No,Card,2,200,Buy,No,John,Smith,"2 street street, suburb",,Job,2,2,Aus,5-30-19
5-30-19 10:15,1940,No,Yes,Yes,No,Cash,1,300,Sell,No,John,Smith,"3 street street, suburb",,Job,3,3,Aus,5-30-19
5-30-19 10:16,1941,No,Yes,Yes,No,Card,2,400,Buy,No,John,Smith,"4 street street, suburb",,Job,4,4,Aus,5-30-19
5-30-19 10:17,1942,No,Yes,Yes,No,Cash,1,500,Buy,No,John,Smith,"5 street street, suburb",,Job,5,5,Aus,5-30-19
5-30-19 10:18,1943,No,Yes,Yes,No,Card,2,600,Buy,No,John,Smith,"6 street street, suburb",,Job,6,6,Aus,5-30-19
5-30-19 10:19,1944,No,Yes,Yes,No,Cash,1,700,Sell,No,John,Smith,"7 street street, suburb",,Job,7,7,Aus,5-30-19
5-30-19 10:20,1945,No,Yes,Yes,No,Card,2,800,Buy,No,John,Smith,"8 street street, suburb",,Job,8,8,Aus,5-30-19
5-30-19 10:21,1946,No,Yes,Yes,No,Cash,1,900,Buy,No,John,Smith,"9 street street, suburb",,Job,9,9,Aus,5-30-19
