"DealCode","FirstName","MiddleName","LastName","Address","DOB","Occupation","PhoneNumber","Email","Marketing","TradingPeriod","DealCreateDate","ProductName","DealValue","TradeDirection","CallDate","CallTime","BusinessName","BusinessCatagory","SearchEngine","Type","Keywords","Referral","LandingPage","CurrentPageReference","AdCopy","AdwordsCampaign","Dtmf","DtmfDescription"
"1943","John","F","Smith","6 street street, suburb","","Job","0455555555","john@smith.com","No","10:18","30-6-19","Card","600","Buy","04-06-19","15:48","test","something","Google","Paid","Nothing","something","Home","ContactUs","something","test","tst","something"
"1944","John","G","Smith","7 street street, suburb","","Job","0455555556","john@smith.com","No","10:19","30-6-19","Cash","700","Sell","05-06-19","16:48","test","something","Google","Paid","Nothing","something","Home","ContactUs","something","test","tst","something"
"1945","John","H","Smith","8 street street, suburb","","Job","0455555557","john@smith.com","No","17:49","30-6-19","Card","800","Buy","06-06-19","17:48","test","something","Google","Paid","Nothing","something","Home","ContactUs","something","test","tst","something"
"1946","John","I","Smith","9 street street, suburb","","Job","0455555558","john@smith.com","No","20:21","30-6-19","Cash","900","Buy","07-06-19","18:48","test","something","Bing","Paid","Nothing","something","Home","ContactUs","","test","tst","something"